…
As with all the readr loading functions, we obtain a tibble, which we can view directly from R Studio (using the environment pane, which by default is in the top right), or using the `print()` function:


~~~
print(co2weekly) # use, e.g. n=100 to print more rows, width = to with of output if it won't all fit on screen
~~~
{: .language-r}



~~~
# A tibble: 2,233 x 9
    yyyy    mm    dd  decYear co2Ppm  days co2OneYearAgo co2TenYearsAgo
   <int> <int> <int>    <dbl>  <dbl> <int>         <dbl>          <dbl>
 1  1974     5    19 1974.380 333.34     6       -999.99        -999.99
 2  1974     5    26 1974.399 332.95     6       -999.99        -999.99
 3  1974     6     2 1974.418 332.32     5       -999.99        -999.99
 4  1974     6     9 1974.437 332.18     7       -999.99        -999.99
 5  1974     6    16 1974.456 332.37     7       -999.99        -999.99
 6  1974     6    23 1974.475 331.59     6       -999.99        -999.99
 7  1974     6    30 1974.495 331.68     6       -999.99        -999.99
 8  1974     7     7 1974.514 331.44     6       -999.99        -999.99
 9  1974     7    14 1974.533 330.85     5       -999.99        -999.99
10  1974     7    21 1974.552 330.76     7       -999.99        -999.99
# ... with 2,223 more rows, and 1 more variables: co2Increase1800 <dbl>
…
For example, if we wanted to calculate the average CO2 levels between 1980 and 2000, we could write:


~~~
co2clean %>% 
  filter(between(yyyy, 1980, 2000)) %>% 
  group_by(yyyy) %>%
  summarize(avgco2 = mean(co2Ppm, na.rm = TRUE))
~~~
{: .language-r}



~~~
# A tibble: 21 x 2
    yyyy   avgco2
   <int>    <dbl>
 1  1980 338.7562
 2  1981 340.1204
 3  1982 341.3012
 4  1983 343.0737
 5  1984 344.4873
 6  1985 346.1263
 7  1986 347.4348
 8  1987 349.2138
 9  1988 351.5740
10  1989 353.1292
# ... with 11 more rows
…
~~~
co2weekly %>% mutate(datestring = paste(yyyy, mm, dd)) %>%  select(yyyy, mm, dd, datestring)
~~~
{: .language-r}



~~~
# A tibble: 2,233 x 4
    yyyy    mm    dd datestring
   <int> <int> <int>      <chr>
 1  1974     5    19  1974 5 19
 2  1974     5    26  1974 5 26
 3  1974     6     2   1974 6 2
 4  1974     6     9   1974 6 9
 5  1974     6    16  1974 6 16
 6  1974     6    23  1974 6 23
 7  1974     6    30  1974 6 30
 8  1974     7     7   1974 7 7
 9  1974     7    14  1974 7 14
10  1974     7    21  1974 7 21
# ... with 2,223 more rows
…
~~~
# Has produced something that looks like it should parse as a date
# Note we could have pasted the yyyy mm dd fields in (almost) any order, provided we use the 
# corresponding lubridate function to convert them to a date

co2weekly %>% mutate(sampledate = ymd(paste(yyyy, mm, dd)))
~~~
{: .language-r}



~~~
# A tibble: 2,233 x 10
    yyyy    mm    dd  decYear co2Ppm  days co2OneYearAgo co2TenYearsAgo
   <int> <int> <int>    <dbl>  <dbl> <int>         <dbl>          <dbl>
 1  1974     5    19 1974.380 333.34     6       -999.99        -999.99
 2  1974     5    26 1974.399 332.95     6       -999.99        -999.99
 3  1974     6     2 1974.418 332.32     5       -999.99        -999.99
 4  1974     6     9 1974.437 332.18     7       -999.99        -999.99
 5  1974     6    16 1974.456 332.37     7       -999.99        -999.99
 6  1974     6    23 1974.475 331.59     6       -999.99        -999.99
 7  1974     6    30 1974.495 331.68     6       -999.99        -999.99
 8  1974     7     7 1974.514 331.44     6       -999.99        -999.99
 9  1974     7    14 1974.533 330.85     5       -999.99        -999.99
10  1974     7    21 1974.552 330.76     7       -999.99        -999.99
# ... with 2,223 more rows, and 2 more variables: co2Increase1800 <dbl>,
#   sampledate <date>
…
