…
We have added `...` to the argument list for the `cleanfield()` and `cleandfields()` functions.

We can use our function in exactly the same way as before:

~~~
cleanfields(co2weekly, c("co2OneYearAgo", "co2TenYearsAgo"))
~~~
{: .language-r}



~~~
# A tibble: 2,233 x 10
    yyyy    mm    dd  decYear co2Ppm  days co2OneYearAgo co2TenYearsAgo
   <int> <int> <int>    <dbl>  <dbl> <int>         <dbl>          <dbl>
 1  1974     5    19 1974.380 333.34     6            NA             NA
 2  1974     5    26 1974.399 332.95     6            NA             NA
 3  1974     6     2 1974.418 332.32     5            NA             NA
 4  1974     6     9 1974.437 332.18     7            NA             NA
 5  1974     6    16 1974.456 332.37     7            NA             NA
 6  1974     6    23 1974.475 331.59     6            NA             NA
 7  1974     6    30 1974.495 331.68     6            NA             NA
 8  1974     7     7 1974.514 331.44     6            NA             NA
 9  1974     7    14 1974.533 330.85     5            NA             NA
10  1974     7    21 1974.552 330.76     7            NA             NA
# ... with 2,223 more rows, and 2 more variables: co2Increase1800 <dbl>,
#   sampledate <date>
~~~
{: .output}
But if we want to override the value that represents missing (say, we wanted to treat `days=6` as missing):


~~~
cleanfields(co2weekly, "days", missingvalue = 6)
~~~
{: .language-r}



~~~
# A tibble: 2,233 x 10
    yyyy    mm    dd  decYear co2Ppm  days co2OneYearAgo co2TenYearsAgo
   <int> <int> <int>    <dbl>  <dbl> <int>         <dbl>          <dbl>
 1  1974     5    19 1974.380 333.34    NA       -999.99        -999.99
 2  1974     5    26 1974.399 332.95    NA       -999.99        -999.99
 3  1974     6     2 1974.418 332.32     5       -999.99        -999.99
 4  1974     6     9 1974.437 332.18     7       -999.99        -999.99
 5  1974     6    16 1974.456 332.37     7       -999.99        -999.99
 6  1974     6    23 1974.475 331.59    NA       -999.99        -999.99
 7  1974     6    30 1974.495 331.68    NA       -999.99        -999.99
 8  1974     7     7 1974.514 331.44    NA       -999.99        -999.99
 9  1974     7    14 1974.533 330.85     5       -999.99        -999.99
10  1974     7    21 1974.552 330.76     7       -999.99        -999.99
# ... with 2,223 more rows, and 2 more variables: co2Increase1800 <dbl>,
#   sampledate <date>
…
