…
> > 
> > As we're looking at the data _before_ cleaning it, we see the large negative values that are used to represent missing data.
> > We also see that some variables have the large positive values we saw before, such as the maximum value of `winddir` being 999.  We *know* that this is incorrect, since it represents a direction in degrees, and so should be <=360.  This suggests the problem is with our loading of the data, or the data itself. We can find a problematic record
> > by filtering the tibble:
> > 
> > 
> > ~~~
> > weather %>% filter(winddir == 999)
> > ~~~
> > {: .language-r}
> > 
> > 
> > 
> > ~~~
> > # A tibble: 631 x 14
> >      obs  yyyy    mm    dd    hh winddir windspeed windsteadiness pressure
> >    <chr> <int> <chr> <chr> <chr>   <int>     <dbl>          <int>    <dbl>
> >  1   MLO  1977    02    17    18     999      99.9             -9    679.0
> >  2   MLO  1977    02    18    05     999      99.9             -9    678.6
> >  3   MLO  1977    02    18    08     999      99.9             -9    680.3
> >  4   MLO  1977    02    18    14     999      99.9             -9    678.6
> >  5   MLO  1977    02    20    04     999      99.9             -9    682.0
> >  6   MLO  1977    02    20    05     999      99.9             -9    682.4
> >  7   MLO  1977    02    20    06     999      99.9             -9    682.7
> >  8   MLO  1977    02    20    07     999      99.9             -9    682.7
> >  9   MLO  1977    02    20    08     999      99.9             -9    682.7
> > 10   MLO  1977    02    20    09     999      99.9             -9    682.7
> > # ... with 621 more rows, and 5 more variables: temperature2m <dbl>,
> > #   temperature10m <dbl>, temperaturetop <dbl>, relhumidity <int>,
> > #   precipitation <int>
…
