…
> >   } else {
> >     cleandata <- cleanfields2(dataset, fieldstoclean)
> >   }
> >   
> >   return(cleandata)
> > }
> > 
> > cleandataset(weather, missingvalues)
> > ~~~
> > {: .r}
> > 
> > 
> > 
> > ~~~
> > # A tibble: 8,760 x 15
> >      obs  yyyy    mm    dd    hh winddir windspeed windsteadiness pressure
> >    <chr> <int> <chr> <chr> <chr>   <int>     <dbl>          <int>    <dbl>
> >  1   MLO  1977    01    01    00     140      11.2            100    678.6
> >  2   MLO  1977    01    01    01     140      10.7            100    678.6
> >  3   MLO  1977    01    01    02     140       8.9            100    679.0
> >  4   MLO  1977    01    01    03     140       8.5            100    679.3
> >  5   MLO  1977    01    01    04     140       8.9            100    679.7
> >  6   MLO  1977    01    01    05     140       8.5            100    680.0
> >  7   MLO  1977    01    01    06     140       8.0            100    680.0
> >  8   MLO  1977    01    01    07     140       8.0            100    680.0
> >  9   MLO  1977    01    01    08     140       6.7            100    679.7
> > 10   MLO  1977    01    01    09     140       7.2            100    679.7
> > # ... with 8,750 more rows, and 6 more variables: temperature2m <dbl>,
> > #   temperature10m <lgl>, temperaturetop <dbl>, relhumidity <int>,
> > #   precipitation <int>, recdate <dttm>
…
<img src="../fig/rmd-04-weather-R-unnamed-chunk-27-1.png" title="plot of chunk unnamed-chunk-27" alt="plot of chunk unnamed-chunk-27" style="display: block; margin: auto;" />



~~~
cleanweather %>% filter(temperature2m > 80)
~~~
{: .r}



~~~
# A tibble: 1,765 x 15
     obs  yyyy    mm    dd    hh winddir windspeed windsteadiness pressure
   <chr> <int> <chr> <chr> <chr>   <int>     <dbl>          <int>    <dbl>
 1   MLO  1977    05    20    19     350       2.2            100    681.7
 2   MLO  1977    05    20    20     300       3.1            100    681.7
 3   MLO  1977    05    21    11     130      13.9            100    680.3
 4   MLO  1977    05    21    12     140       8.9            100    680.7
 5   MLO  1977    05    21    13     180       0.0             NA    680.0
 6   MLO  1977    05    21    14     130       9.4            100    680.0
 7   MLO  1977    05    21    15     130       8.5            100    680.3
 8   MLO  1977    05    21    16     130      10.7            100    680.7
 9   MLO  1977    05    21    17     120      11.2            100    681.0
10   MLO  1977    05    21    18     115      11.2            100    681.0
# ... with 1,755 more rows, and 6 more variables: temperature2m <dbl>,
#   temperature10m <dbl>, temperaturetop <dbl>, relhumidity <int>,
#   precipitation <int>, recdate <dttm>
…
~~~
cleanweather %>% filter(winddir < 0 | winddir > 360) # Recode 360s to 0s?
~~~
{: .r}



~~~
# A tibble: 3,141 x 15
     obs  yyyy    mm    dd    hh winddir windspeed windsteadiness pressure
   <chr> <int> <chr> <chr> <chr>   <int>     <dbl>          <int>    <dbl>
 1   MLO  1977    02    17    18     999      99.9             NA    679.0
 2   MLO  1977    02    18    05     999      99.9             NA    678.6
 3   MLO  1977    02    18    08     999      99.9             NA    680.3
 4   MLO  1977    02    18    14     999      99.9             NA    678.6
 5   MLO  1977    02    20    04     999      99.9             NA    682.0
 6   MLO  1977    02    20    05     999      99.9             NA    682.4
 7   MLO  1977    02    20    06     999      99.9             NA    682.7
 8   MLO  1977    02    20    07     999      99.9             NA    682.7
 9   MLO  1977    02    20    08     999      99.9             NA    682.7
10   MLO  1977    02    20    09     999      99.9             NA    682.7
# ... with 3,131 more rows, and 6 more variables: temperature2m <dbl>,
#   temperature10m <dbl>, temperaturetop <dbl>, relhumidity <int>,
#   precipitation <int>, recdate <dttm>
…
