…
We can sense check our load by checking that the number of observations in each year is (roughly - don't forget leap years) the same.


~~~
cleanweather %>%  
  group_by(yyyy) %>% 
  count()  
~~~
{: .language-r}



~~~
# A tibble: 39 x 2
# Groups:   yyyy [39]
    yyyy     n
   <int> <int>
 1  1977  8760
 2  1978  8760
 3  1979  8760
 4  1980  8784
 5  1981  8760
 6  1982  8760
 7  1983  8760
 8  1984  8784
 9  1985  8760
10  1986  8760
# ... with 29 more rows
…
