…
But if we run this function, it doesn't do what we'd expect:


~~~
getWarmWindyObservations(cleanweather)
~~~
{: .language-r}



~~~
# A tibble: 324,813 x 15
     obs  yyyy    mm    dd    hh winddir windspeed windsteadiness pressure
   <chr> <int> <chr> <chr> <chr>   <int>     <dbl>          <int>    <dbl>
 1   MLO  1977    01    01    00     140      11.2            100    678.6
 2   MLO  1977    01    01    01     140      10.7            100    678.6
 3   MLO  1977    01    01    02     140       8.9            100    679.0
 4   MLO  1977    01    01    03     140       8.5            100    679.3
 5   MLO  1977    01    01    04     140       8.9            100    679.7
 6   MLO  1977    01    01    05     140       8.5            100    680.0
 7   MLO  1977    01    01    06     140       8.0            100    680.0
 8   MLO  1977    01    01    07     140       8.0            100    680.0
 9   MLO  1977    01    01    08     140       6.7            100    679.7
10   MLO  1977    01    01    09     140       7.2            100    679.7
# ... with 324,803 more rows, and 6 more variables: temperature2m <dbl>,
#   temperature10m <dbl>, temperaturetop <dbl>, relhumidity <int>,
#   precipitation <int>, recdate <dttm>
…
  warmWindy <- indata %>% 
    filter(windspeed >= UQ(windspeed), temperature2m >= UQ(temperature2m))
  
  return(warmWindy)
  
}
getWarmWindyObservations(cleanweather)
~~~
{: .language-r}



~~~
# A tibble: 97 x 15
     obs  yyyy    mm    dd    hh winddir windspeed windsteadiness pressure
   <chr> <int> <chr> <chr> <chr>   <int>     <dbl>          <int>    <dbl>
 1   MLO  1979    08    01    22     125       7.6            100    681.3
 2   MLO  1981    07    06    23     130       7.2            100    683.0
 3   MLO  1981    07    07    00     126       7.6            100    683.4
 4   MLO  1981    07    08    22      33       6.3            100    683.7
 5   MLO  1981    08    18    23      26       6.7            100    683.0
 6   MLO  1982    07    02    22      92       6.3            100    683.0
 7   MLO  1982    07    02    23      76       6.7            100    682.7
 8   MLO  1983    01    24    23     239       9.8            100    680.3
 9   MLO  1983    08    25    23      33       7.2            100    684.4
10   MLO  1983    08    26    21      10       8.0            100    685.4
# ... with 87 more rows, and 6 more variables: temperature2m <dbl>,
#   temperature10m <dbl>, temperaturetop <dbl>, relhumidity <int>,
#   precipitation <int>, recdate <dttm>
…
There is one small issue that remains; how does filter _know_ that the first `windspeed` in ``` filter(windspeed >= UQ(windspeed), ...``` refers to the `windspeed` variable in the tibble? (and similarly for the `temperature2m` variable). What happens if we delete the  year variable? Surely this should give an error?


~~~
weather_nowind <- cleanweather %>% select(-windspeed)
getWarmWindyObservations(weather_nowind)
~~~
{: .language-r}



~~~
# A tibble: 211 x 14
     obs  yyyy    mm    dd    hh winddir windsteadiness pressure
   <chr> <int> <chr> <chr> <chr>   <int>          <int>    <dbl>
 1   MLO  1979    08    01    22     125            100    681.3
 2   MLO  1980    06    11    00      26            100    681.0
 3   MLO  1981    05    23    01      NA             NA    682.0
 4   MLO  1981    06    19    20     218            100    682.4
 5   MLO  1981    06    19    21     207            100    682.4
 6   MLO  1981    06    19    22      39            100    682.0
 7   MLO  1981    06    19    23      28            100    681.7
 8   MLO  1981    06    20    00      29            100    681.7
 9   MLO  1981    06    20    01      33            100    681.3
10   MLO  1981    07    06    21     145            100    683.4
# ... with 201 more rows, and 6 more variables: temperature2m <dbl>,
#   temperature10m <dbl>, temperaturetop <dbl>, relhumidity <int>,
#   precipitation <int>, recdate <dttm>
…
  warmWindy <- indata %>% 
    filter(.data$windspeed >= UQ(windspeed), .data$temperature2m >= UQ(temperature2m))
  
  return(warmWindy)
  
}
getWarmWindyObservations(cleanweather)
~~~
{: .language-r}



~~~
# A tibble: 97 x 15
     obs  yyyy    mm    dd    hh winddir windspeed windsteadiness pressure
   <chr> <int> <chr> <chr> <chr>   <int>     <dbl>          <int>    <dbl>
 1   MLO  1979    08    01    22     125       7.6            100    681.3
 2   MLO  1981    07    06    23     130       7.2            100    683.0
 3   MLO  1981    07    07    00     126       7.6            100    683.4
 4   MLO  1981    07    08    22      33       6.3            100    683.7
 5   MLO  1981    08    18    23      26       6.7            100    683.0
 6   MLO  1982    07    02    22      92       6.3            100    683.0
 7   MLO  1982    07    02    23      76       6.7            100    682.7
 8   MLO  1983    01    24    23     239       9.8            100    680.3
 9   MLO  1983    08    25    23      33       7.2            100    684.4
10   MLO  1983    08    26    21      10       8.0            100    685.4
# ... with 87 more rows, and 6 more variables: temperature2m <dbl>,
#   temperature10m <dbl>, temperaturetop <dbl>, relhumidity <int>,
#   precipitation <int>, recdate <dttm>
…
